<svg width="105" height="104" viewBox="0 0 105 104" fill="none" xmlns="http://www.w3.org/2000/svg">
<path d="M48.125 55.0697H45.9679L45.2065 57.4806C44.9528 58.3054 44.699 59.257 44.5087 60.0818H44.4452C44.2549 59.1936 44.0646 58.3054 43.8108 57.4806L43.1129 55.0697H40.8924L40.4482 62.3658H41.9709L42.0978 59.5743C42.1612 58.686 42.1612 57.5441 42.2247 56.5289C42.415 57.4806 42.6688 58.4957 42.8591 59.3839L43.6204 62.2389H44.8893L45.7775 59.3839C46.0313 58.5592 46.3485 57.4806 46.6023 56.5289H46.7292C46.7292 57.6075 46.7927 58.6226 46.7927 59.5108L46.9195 62.3024H48.5056L48.125 55.0697Z" fill="white"/>
<path d="M51.424 55.0697H49.7744V62.3658H51.424V55.0697Z" fill="white"/>
<path d="M54.5328 60.97V55.0697H52.8833V62.3658H57.4513V60.97H54.5328Z" fill="white"/>
<path d="M61.8923 58.1785L64.3031 55.0697H62.2729L60.6234 57.4806C60.433 57.7344 60.3062 57.9882 60.1158 58.3054H60.0524V55.0697H58.4028V62.3658H60.0524V59.9549L60.6868 59.1936L62.4633 62.3658H64.3666L61.8923 58.1785Z" fill="white"/>
<path d="M68.4626 75.7039V48.7402H68.3357C68.3357 44.3625 65.7979 39.2236 65.6711 39.0332L60.7859 28.8187C62.4989 28.1843 63.7677 26.5347 63.7677 24.568C63.7677 22.0302 61.7375 20 59.1998 20H45.8131C43.2753 20 41.2451 22.0302 41.2451 24.568C41.2451 26.5347 42.4505 28.1843 44.227 28.8187L39.3418 39.0332C39.1514 39.287 36.6137 44.426 36.6137 48.7402V50.8338V64.4109V75.6405C36.6137 75.7674 36.3599 79.3202 38.3901 81.4139C39.4052 82.4924 40.7375 83 42.3871 83H62.6892C64.3387 83 65.6711 82.429 66.6862 81.4139C68.6529 79.2568 68.4626 75.7674 68.4626 75.7039ZM43.4656 24.568C43.4656 23.2991 44.5442 22.2205 45.8131 22.2205H59.1998C60.4686 22.2205 61.5472 23.2991 61.5472 24.568C61.5472 25.8369 60.4686 26.9154 59.1998 26.9154H45.8131C44.4807 26.9154 43.4656 25.8369 43.4656 24.568ZM38.8342 48.7402C38.8342 44.9335 41.2451 40.1118 41.2451 40.0483L46.4475 29.136H58.4384L63.7043 40.0483C63.7043 40.1118 66.1152 44.9335 66.1152 48.7402V49.6918H38.8342V48.7402V48.7402ZM38.8342 51.9758H66.1152V63.3323H38.8342V51.9758V51.9758ZM64.9732 79.9547C64.4022 80.5891 63.6409 80.8429 62.6257 80.8429H42.3236C41.3085 80.8429 40.5472 80.5257 39.9762 79.9547C38.6439 78.4955 38.8342 75.8308 38.8342 75.7674V65.6163H66.1152V75.8943C66.1152 75.8308 66.3055 78.4955 64.9732 79.9547Z" fill="white"/>
<circle cx="52.0356" cy="52" r="49.5" stroke="#F57C00" stroke-width="5"/>
</svg>
