<svg width="44" height="44" viewBox="0 0 44 46" fill="none" xmlns="http://www.w3.org/2000/svg">
<path d="M41.3975 31.1265C38.122 35.5931 37.1294 40.3575 22.0423 42.2433C5.66486 39.3649 8.64264 35.4939 2.68721 27.057C1.79382 7.60257 10.9058 28.2051 31.8688 19.9105C48.0531 22.5838 41.8724 30.479 41.3975 31.1265Z" fill="white"/>
<path d="M21.3844 23.5196H20.5627L20.2726 24.4763C20.176 24.8036 20.0793 25.1813 20.0068 25.5086H19.9826C19.9101 25.1561 19.8376 24.8036 19.7409 24.4763L19.4751 23.5196H18.6291L18.46 26.4149H19.04L19.0884 25.3072C19.1125 24.9547 19.1125 24.5015 19.1367 24.0987C19.2092 24.4763 19.3059 24.8792 19.3784 25.2316L19.6684 26.3646H20.1518L20.4902 25.2316C20.5868 24.9043 20.7077 24.4763 20.8044 24.0987H20.8527C20.8527 24.5267 20.8769 24.9295 20.8769 25.282L20.9252 26.3897H21.5294L21.3844 23.5196Z" fill="black"/>
<path d="M22.6416 23.5196H22.0132V26.4149H22.6416V23.5196Z" fill="black"/>
<path d="M23.8257 25.861V23.5196H23.1973V26.4149H24.9374V25.861H23.8257Z" fill="black"/>
<path d="M26.6291 24.7533L27.5475 23.5196H26.7741L26.1457 24.4763C26.0732 24.577 26.0249 24.6777 25.9524 24.8036H25.9282V23.5196H25.2998V26.4149H25.9282V25.4582L26.1699 25.1561L26.8466 26.4149H27.5717L26.6291 24.7533Z" fill="black"/>
<path d="M29.0494 31.2205V20.9486H29.0016C29.0016 19.281 28.0459 17.3233 27.9981 17.2508L26.1583 13.3595C26.8034 13.1178 27.2813 12.4894 27.2813 11.7402C27.2813 10.7734 26.5167 10 25.561 10H20.5196C19.5639 10 18.7993 10.7734 18.7993 11.7402C18.7993 12.4894 19.2532 13.1178 19.9223 13.3595L18.0825 17.2508C18.0108 17.3474 17.0551 19.3051 17.0551 20.9486V21.7462V26.9184V31.1964C17.0551 31.2447 16.9595 32.5982 17.7241 33.3958C18.1064 33.8066 18.6081 34 19.2294 34H26.8751C27.4963 34 27.9981 33.7825 28.3804 33.3958C29.1211 32.574 29.0494 31.2447 29.0494 31.2205ZM19.6355 11.7402C19.6355 11.2568 20.0417 10.8459 20.5196 10.8459H25.561C26.0389 10.8459 26.445 11.2568 26.445 11.7402C26.445 12.2236 26.0389 12.6344 25.561 12.6344H20.5196C20.0178 12.6344 19.6355 12.2236 19.6355 11.7402ZM17.8913 20.9486C17.8913 19.4985 18.7993 17.6616 18.7993 17.6375L20.7585 13.4804H25.2743L27.2574 17.6375C27.2574 17.6616 28.1653 19.4985 28.1653 20.9486V21.3112H17.8913V20.9486ZM17.8913 22.1813H28.1653V26.5076H17.8913V22.1813ZM27.7353 32.8399C27.5202 33.0816 27.2335 33.1782 26.8512 33.1782H19.2055C18.8232 33.1782 18.5365 33.0574 18.3214 32.8399C17.8197 32.284 17.8913 31.2689 17.8913 31.2447V27.3776H28.1653V31.2931C28.1653 31.2689 28.237 32.284 27.7353 32.8399Z" fill="#F57C00"/>
<path d="M42.9425 22C42.9425 33.6214 33.7575 43 22.479 43C11.2005 43 2.01562 33.6214 2.01562 22C2.01562 10.3786 11.2005 1 22.479 1C33.7575 1 42.9425 10.3786 42.9425 22Z" stroke="#F57C00" stroke-width="2"/>
</svg>
